{
  "emoji":"coffee",
  "availability":"busy",
  "message":"I crave coffee :coffee:",
  "message_html": "I crave coffee <gl-emoji title=\"hot beverage\" data-name=\"coffee\" data-unicode-version=\"4.0\">☕</gl-emoji>",
  "clear_status_at": null
}
