{
  "id": "8b090c1b79a14f2bd9e8a738f717824ff53aebad",
  "short_id": "8b090c1b",
  "author_name": "Example User",
  "author_email": "user@example.com",
  "authored_date": "2016-12-12T20:10:39.000+01:00",
  "created_at": "2016-12-12T20:10:39.000+01:00",
  "committer_name": "Administrator",
  "committer_email": "admin@example.com",
  "committed_date": "2016-12-12T20:10:39.000+01:00",
  "title": "Feature added",
  "message": "Feature added\n\nSigned-off-by: Example User <user@example.com>\n",
  "parent_ids": [
    "a738f717824ff53aebad8b090c1b79a14f2bd9e8"
  ],
  "web_url": "https://gitlab.example.com/thedude/gitlab-foss/-/commit/8b090c1b79a14f2bd9e8a738f717824ff53aebad"
}
