[
  {
    "id": 1,
    "name": "Foobar Group",
    "avatar_url": "http://localhost:3000/uploads/group/avatar/1/foo.jpg",
    "web_url": "http://localhost:3000/groups/foo-bar",
    "full_name": "Foobar Group",
    "full_path": "foo-bar"
  },
  {
    "id": 2,
    "name": "Shared Group",
    "avatar_url": "http://gitlab.example.com/uploads/group/avatar/1/bar.jpg",
    "web_url": "http://gitlab.example.com/groups/foo/bar",
    "full_name": "Shared Group",
    "full_path": "foo/shared"
  }
]
